/*
WARNING: Do NOT edit the input and output ports in this file in a text
editor if you plan to continue editing the block that represents it in
the Block Editor! File corruption is VERY likely to occur.
*/
/*
Copyright (C) 2021  Intel Corporation. All rights reserved.
Your use of Intel Corporation's design tools, logic functions 
and other software and tools, and any partner logic 
functions, and any output files from any of the foregoing 
(including device programming or simulation files), and any 
associated documentation or information are expressly subject 
to the terms and conditions of the Intel Program License 
Subscription Agreement, the Intel Quartus Prime License Agreement,
the Intel FPGA IP License Agreement, or other applicable license
agreement, including, without limitation, that your use is for
the sole purpose of programming logic devices manufactured by
Intel and sold by Intel or its authorized distributors.  Please
refer to the applicable agreement for further details, at
https://fpgasoftware.intel.com/eula.
*/
(header "graphic" (version "1.4"))
(pin
	(input)
	(rect -256 120 -88 136)
	(text "INPUT" (rect 125 0 153 10)(font "Arial" (font_size 6)))
	(text "CLOCK_50" (rect 5 0 60 12)(font "Arial" ))
	(pt 168 8)
	(drawing
		(line (pt 84 12)(pt 109 12))
		(line (pt 84 4)(pt 109 4))
		(line (pt 113 8)(pt 168 8))
		(line (pt 84 12)(pt 84 4))
		(line (pt 109 4)(pt 113 8))
		(line (pt 109 12)(pt 113 8))
	)
	(text "VCC" (rect 128 7 148 17)(font "Arial" (font_size 6)))
	(annotation_block (location)(rect -320 136 -256 152))
)
(pin
	(input)
	(rect 144 72 312 88)
	(text "INPUT" (rect 125 0 153 10)(font "Arial" (font_size 6)))
	(text "KEY[1..0]" (rect 5 0 54 12)(font "Arial" ))
	(pt 168 8)
	(drawing
		(line (pt 84 12)(pt 109 12))
		(line (pt 84 4)(pt 109 4))
		(line (pt 113 8)(pt 168 8))
		(line (pt 84 12)(pt 84 4))
		(line (pt 109 4)(pt 113 8))
		(line (pt 109 12)(pt 113 8))
	)
	(text "VCC" (rect 128 7 148 17)(font "Arial" (font_size 6)))
	(annotation_block (location)(rect 88 72 144 104))
)
(pin
	(input)
	(rect 40 168 208 184)
	(text "INPUT" (rect 125 0 153 10)(font "Arial" (font_size 6)))
	(text "UART_RXD" (rect 5 0 62 12)(font "Arial" ))
	(pt 168 8)
	(drawing
		(line (pt 84 12)(pt 109 12))
		(line (pt 84 4)(pt 109 4))
		(line (pt 113 8)(pt 168 8))
		(line (pt 84 12)(pt 84 4))
		(line (pt 109 4)(pt 113 8))
		(line (pt 109 12)(pt 113 8))
	)
	(text "VCC" (rect 128 7 148 17)(font "Arial" (font_size 6)))
	(annotation_block (location)(rect -16 184 40 200))
)
(pin
	(input)
	(rect -272 224 -104 240)
	(text "INPUT" (rect 125 0 153 10)(font "Arial" (font_size 6)))
	(text "SW[1..0]" (rect 5 0 52 12)(font "Arial" ))
	(pt 168 8)
	(drawing
		(line (pt 84 12)(pt 109 12))
		(line (pt 84 4)(pt 109 4))
		(line (pt 113 8)(pt 168 8))
		(line (pt 84 12)(pt 84 4))
		(line (pt 109 4)(pt 113 8))
		(line (pt 109 12)(pt 113 8))
	)
	(text "VCC" (rect 128 7 148 17)(font "Arial" (font_size 6)))
	(annotation_block (location)(rect -336 240 -272 280))
)
(pin
	(input)
	(rect 40 352 208 368)
	(text "INPUT" (rect 125 0 153 10)(font "Arial" (font_size 6)))
	(text "SW[9..2]" (rect 5 0 52 12)(font "Arial" ))
	(pt 168 8)
	(drawing
		(line (pt 84 12)(pt 109 12))
		(line (pt 84 4)(pt 109 4))
		(line (pt 113 8)(pt 168 8))
		(line (pt 84 12)(pt 84 4))
		(line (pt 109 4)(pt 113 8))
		(line (pt 109 12)(pt 113 8))
	)
	(text "VCC" (rect 128 7 148 17)(font "Arial" (font_size 6)))
	(annotation_block (location)(rect -24 368 40 480))
)
(pin
	(output)
	(rect 1080 200 1256 216)
	(text "OUTPUT" (rect 1 0 39 10)(font "Arial" (font_size 6)))
	(text "UART_TXD" (rect 90 0 144 12)(font "Intel Clear" ))
	(pt 0 8)
	(drawing
		(line (pt 0 8)(pt 52 8))
		(line (pt 52 4)(pt 78 4))
		(line (pt 52 12)(pt 78 12))
		(line (pt 52 12)(pt 52 4))
		(line (pt 78 4)(pt 82 8))
		(line (pt 82 8)(pt 78 12))
		(line (pt 78 12)(pt 82 8))
	)
	(annotation_block (location)(rect 1256 216 1312 232))
)
(pin
	(output)
	(rect 1080 240 1256 256)
	(text "OUTPUT" (rect 1 0 39 10)(font "Arial" (font_size 6)))
	(text "LEDR[0..9]" (rect 90 0 146 12)(font "Arial" ))
	(pt 0 8)
	(drawing
		(line (pt 0 8)(pt 52 8))
		(line (pt 52 4)(pt 78 4))
		(line (pt 52 12)(pt 78 12))
		(line (pt 52 12)(pt 52 4))
		(line (pt 78 4)(pt 82 8))
		(line (pt 82 8)(pt 78 12))
		(line (pt 78 12)(pt 82 8))
	)
	(annotation_block (location)(rect 1256 256 1312 408))
)
(pin
	(output)
	(rect 1640 192 1816 208)
	(text "OUTPUT" (rect 1 0 39 10)(font "Arial" (font_size 6)))
	(text "HEX5[7..0]" (rect 90 0 147 12)(font "Arial" ))
	(pt 0 8)
	(drawing
		(line (pt 0 8)(pt 52 8))
		(line (pt 52 4)(pt 78 4))
		(line (pt 52 12)(pt 78 12))
		(line (pt 52 12)(pt 52 4))
		(line (pt 78 4)(pt 82 8))
		(line (pt 82 8)(pt 78 12))
		(line (pt 78 12)(pt 82 8))
	)
	(annotation_block (location)(rect 1776 208 1832 336))
)
(pin
	(output)
	(rect 1640 344 1816 360)
	(text "OUTPUT" (rect 1 0 39 10)(font "Arial" (font_size 6)))
	(text "HEX4[7..0]" (rect 90 0 141 12)(font "Intel Clear" ))
	(pt 0 8)
	(drawing
		(line (pt 0 8)(pt 52 8))
		(line (pt 52 4)(pt 78 4))
		(line (pt 52 12)(pt 78 12))
		(line (pt 52 12)(pt 52 4))
		(line (pt 78 4)(pt 82 8))
		(line (pt 82 8)(pt 78 12))
		(line (pt 78 12)(pt 82 8))
	)
	(annotation_block (location)(rect 1776 360 1832 488))
)
(pin
	(output)
	(rect 1640 496 1816 512)
	(text "OUTPUT" (rect 1 0 39 10)(font "Arial" (font_size 6)))
	(text "HEX3[7..0]" (rect 90 0 141 12)(font "Intel Clear" ))
	(pt 0 8)
	(drawing
		(line (pt 0 8)(pt 52 8))
		(line (pt 52 4)(pt 78 4))
		(line (pt 52 12)(pt 78 12))
		(line (pt 52 12)(pt 52 4))
		(line (pt 78 4)(pt 82 8))
		(line (pt 82 8)(pt 78 12))
		(line (pt 78 12)(pt 82 8))
	)
	(annotation_block (location)(rect 1776 512 1832 640))
)
(pin
	(output)
	(rect 1640 648 1816 664)
	(text "OUTPUT" (rect 1 0 39 10)(font "Arial" (font_size 6)))
	(text "HEX2[7..0]" (rect 90 0 141 12)(font "Intel Clear" ))
	(pt 0 8)
	(drawing
		(line (pt 0 8)(pt 52 8))
		(line (pt 52 4)(pt 78 4))
		(line (pt 52 12)(pt 78 12))
		(line (pt 52 12)(pt 52 4))
		(line (pt 78 4)(pt 82 8))
		(line (pt 82 8)(pt 78 12))
		(line (pt 78 12)(pt 82 8))
	)
	(annotation_block (location)(rect 1776 664 1840 792))
)
(pin
	(output)
	(rect 1640 800 1816 816)
	(text "OUTPUT" (rect 1 0 39 10)(font "Arial" (font_size 6)))
	(text "HEX1[7..0]" (rect 90 0 141 12)(font "Intel Clear" ))
	(pt 0 8)
	(drawing
		(line (pt 0 8)(pt 52 8))
		(line (pt 52 4)(pt 78 4))
		(line (pt 52 12)(pt 78 12))
		(line (pt 52 12)(pt 52 4))
		(line (pt 78 4)(pt 82 8))
		(line (pt 82 8)(pt 78 12))
		(line (pt 78 12)(pt 82 8))
	)
	(annotation_block (location)(rect 1776 816 1840 944))
)
(pin
	(output)
	(rect 1640 952 1816 968)
	(text "OUTPUT" (rect 1 0 39 10)(font "Arial" (font_size 6)))
	(text "HEX0[7..0]" (rect 90 0 141 12)(font "Intel Clear" ))
	(pt 0 8)
	(drawing
		(line (pt 0 8)(pt 52 8))
		(line (pt 52 4)(pt 78 4))
		(line (pt 52 12)(pt 78 12))
		(line (pt 52 12)(pt 52 4))
		(line (pt 78 4)(pt 82 8))
		(line (pt 82 8)(pt 78 12))
		(line (pt 78 12)(pt 82 8))
	)
	(annotation_block (location)(rect 1776 968 1840 1096))
)
(pin
	(output)
	(rect 1072 104 1248 120)
	(text "OUTPUT" (rect 1 0 39 10)(font "Arial" (font_size 6)))
	(text "TP2" (rect 90 0 110 12)(font "Arial" ))
	(pt 0 8)
	(drawing
		(line (pt 0 8)(pt 52 8))
		(line (pt 52 4)(pt 78 4))
		(line (pt 52 12)(pt 78 12))
		(line (pt 52 12)(pt 52 4))
		(line (pt 78 4)(pt 82 8))
		(line (pt 82 8)(pt 78 12))
		(line (pt 78 12)(pt 82 8))
	)
	(annotation_block (location)(rect 1248 120 1304 136))
)
(symbol
	(rect 400 88 448 120)
	(text "NOT" (rect 1 0 22 10)(font "Arial" (font_size 6)))
	(text "inst3" (rect 3 21 27 33)(font "Intel Clear" ))
	(port
		(pt 0 16)
		(input)
		(text "IN" (rect 2 7 16 18)(font "Courier New" (bold))(invisible))
		(text "IN" (rect 2 7 16 18)(font "Courier New" (bold))(invisible))
		(line (pt 0 16)(pt 13 16))
	)
	(port
		(pt 48 16)
		(output)
		(text "OUT" (rect 32 7 53 18)(font "Courier New" (bold))(invisible))
		(text "OUT" (rect 32 7 53 18)(font "Courier New" (bold))(invisible))
		(line (pt 39 16)(pt 48 16))
	)
	(drawing
		(line (pt 13 25)(pt 13 7))
		(line (pt 13 7)(pt 31 16))
		(line (pt 13 25)(pt 31 16))
		(circle (rect 31 12 39 20))
	)
)
(symbol
	(rect 536 96 736 256)
	(text "UART" (rect 5 0 39 15)(font "Intel Clear" (font_size 8)))
	(text "UART1" (rect 8 144 42 156)(font "Intel Clear" ))
	(port
		(pt 0 32)
		(input)
		(text "clk" (rect 0 0 17 15)(font "Intel Clear" (font_size 8)))
		(text "clk" (rect 21 27 38 42)(font "Intel Clear" (font_size 8)))
		(line (pt 0 32)(pt 16 32))
	)
	(port
		(pt 0 48)
		(input)
		(text "reset" (rect 0 0 29 15)(font "Intel Clear" (font_size 8)))
		(text "reset" (rect 21 43 50 58)(font "Intel Clear" (font_size 8)))
		(line (pt 0 48)(pt 16 48))
	)
	(port
		(pt 0 64)
		(input)
		(text "baud[2..0]" (rect 0 0 60 15)(font "Intel Clear" (font_size 8)))
		(text "baud[2..0]" (rect 21 59 81 74)(font "Intel Clear" (font_size 8)))
		(line (pt 0 64)(pt 16 64)(line_width 3))
	)
	(port
		(pt 0 80)
		(input)
		(text "rx" (rect 0 0 12 15)(font "Intel Clear" (font_size 8)))
		(text "rx" (rect 21 75 33 90)(font "Intel Clear" (font_size 8)))
		(line (pt 0 80)(pt 16 80))
	)
	(port
		(pt 0 96)
		(input)
		(text "read" (rect 0 0 27 15)(font "Intel Clear" (font_size 8)))
		(text "read" (rect 21 91 48 106)(font "Intel Clear" (font_size 8)))
		(line (pt 0 96)(pt 16 96))
	)
	(port
		(pt 0 112)
		(input)
		(text "write" (rect 0 0 29 15)(font "Intel Clear" (font_size 8)))
		(text "write" (rect 21 107 50 122)(font "Intel Clear" (font_size 8)))
		(line (pt 0 112)(pt 16 112))
	)
	(port
		(pt 0 128)
		(input)
		(text "tx_data[7..0]" (rect 0 0 73 15)(font "Intel Clear" (font_size 8)))
		(text "tx_data[7..0]" (rect 21 123 94 138)(font "Intel Clear" (font_size 8)))
		(line (pt 0 128)(pt 16 128)(line_width 3))
	)
	(port
		(pt 200 32)
		(output)
		(text "frame_err" (rect 0 0 57 15)(font "Intel Clear" (font_size 8)))
		(text "frame_err" (rect 122 27 179 42)(font "Intel Clear" (font_size 8)))
		(line (pt 200 32)(pt 184 32))
	)
	(port
		(pt 200 48)
		(output)
		(text "valid" (rect 0 0 28 15)(font "Intel Clear" (font_size 8)))
		(text "valid" (rect 151 43 179 58)(font "Intel Clear" (font_size 8)))
		(line (pt 200 48)(pt 184 48))
	)
	(port
		(pt 200 64)
		(output)
		(text "rx_data[7..0]" (rect 0 0 74 15)(font "Intel Clear" (font_size 8)))
		(text "rx_data[7..0]" (rect 105 59 179 74)(font "Intel Clear" (font_size 8)))
		(line (pt 200 64)(pt 184 64)(line_width 3))
	)
	(port
		(pt 200 80)
		(output)
		(text "overrun" (rect 0 0 46 15)(font "Intel Clear" (font_size 8)))
		(text "overrun" (rect 133 75 179 90)(font "Intel Clear" (font_size 8)))
		(line (pt 200 80)(pt 184 80))
	)
	(port
		(pt 200 96)
		(output)
		(text "busy" (rect 0 0 28 15)(font "Intel Clear" (font_size 8)))
		(text "busy" (rect 151 91 179 106)(font "Intel Clear" (font_size 8)))
		(line (pt 200 96)(pt 184 96))
	)
	(port
		(pt 200 112)
		(output)
		(text "tx" (rect 0 0 12 15)(font "Intel Clear" (font_size 8)))
		(text "tx" (rect 167 107 179 122)(font "Intel Clear" (font_size 8)))
		(line (pt 200 112)(pt 184 112))
	)
	(drawing
		(rectangle (rect 16 16 184 144))
	)
)
(symbol
	(rect 360 192 408 224)
	(text "NOT" (rect 1 0 22 10)(font "Arial" (font_size 6)))
	(text "inst" (rect 3 21 23 33)(font "Arial" ))
	(port
		(pt 0 16)
		(input)
		(text "IN" (rect 2 7 16 18)(font "Courier New" (bold))(invisible))
		(text "IN" (rect 2 7 16 18)(font "Courier New" (bold))(invisible))
		(line (pt 0 16)(pt 13 16))
	)
	(port
		(pt 48 16)
		(output)
		(text "OUT" (rect 32 7 53 18)(font "Courier New" (bold))(invisible))
		(text "OUT" (rect 32 7 53 18)(font "Courier New" (bold))(invisible))
		(line (pt 39 16)(pt 48 16))
	)
	(drawing
		(line (pt 13 25)(pt 13 7))
		(line (pt 13 7)(pt 31 16))
		(line (pt 13 25)(pt 31 16))
		(circle (rect 31 12 39 20))
	)
)
(symbol
	(rect 416 248 448 280)
	(text "GND" (rect 8 16 30 26)(font "Arial" (font_size 6)))
	(text "inst2" (rect 3 21 27 33)(font "Intel Clear" )(invisible))
	(port
		(pt 16 0)
		(output)
		(text "1" (rect 18 0 25 11)(font "Courier New" (bold))(invisible))
		(text "1" (rect 18 0 25 11)(font "Courier New" (bold))(invisible))
		(line (pt 16 8)(pt 16 0))
	)
	(drawing
		(line (pt 8 8)(pt 16 16))
		(line (pt 16 16)(pt 24 8))
		(line (pt 8 8)(pt 24 8))
	)
)
(symbol
	(rect 1408 440 1584 600)
	(text "DisplayModule" (rect 5 0 92 15)(font "Intel Clear" (font_size 8)))
	(text "inst10" (rect 8 144 38 156)(font "Intel Clear" ))
	(port
		(pt 0 32)
		(input)
		(text "DIN[23..0]" (rect 0 0 60 15)(font "Intel Clear" (font_size 8)))
		(text "DIN[23..0]" (rect 21 27 81 42)(font "Intel Clear" (font_size 8)))
		(line (pt 0 32)(pt 16 32)(line_width 3))
	)
	(port
		(pt 176 32)
		(output)
		(text "HEX5[7..0]" (rect 0 0 62 15)(font "Intel Clear" (font_size 8)))
		(text "HEX5[7..0]" (rect 93 27 155 42)(font "Intel Clear" (font_size 8)))
		(line (pt 176 32)(pt 160 32)(line_width 3))
	)
	(port
		(pt 176 48)
		(output)
		(text "HEX4[7..0]" (rect 0 0 62 15)(font "Intel Clear" (font_size 8)))
		(text "HEX4[7..0]" (rect 93 43 155 58)(font "Intel Clear" (font_size 8)))
		(line (pt 176 48)(pt 160 48)(line_width 3))
	)
	(port
		(pt 176 64)
		(output)
		(text "HEX3[7..0]" (rect 0 0 62 15)(font "Intel Clear" (font_size 8)))
		(text "HEX3[7..0]" (rect 93 59 155 74)(font "Intel Clear" (font_size 8)))
		(line (pt 176 64)(pt 160 64)(line_width 3))
	)
	(port
		(pt 176 80)
		(output)
		(text "HEX2[7..0]" (rect 0 0 62 15)(font "Intel Clear" (font_size 8)))
		(text "HEX2[7..0]" (rect 93 75 155 90)(font "Intel Clear" (font_size 8)))
		(line (pt 176 80)(pt 160 80)(line_width 3))
	)
	(port
		(pt 176 96)
		(output)
		(text "HEX1[7..0]" (rect 0 0 62 15)(font "Intel Clear" (font_size 8)))
		(text "HEX1[7..0]" (rect 93 91 155 106)(font "Intel Clear" (font_size 8)))
		(line (pt 176 96)(pt 160 96)(line_width 3))
	)
	(port
		(pt 176 112)
		(output)
		(text "HEX0[7..0]" (rect 0 0 62 15)(font "Intel Clear" (font_size 8)))
		(text "HEX0[7..0]" (rect 93 107 155 122)(font "Intel Clear" (font_size 8)))
		(line (pt 176 112)(pt 160 112)(line_width 3))
	)
	(drawing
		(rectangle (rect 16 16 160 144))
	)
)
(symbol
	(rect -192 184 -160 216)
	(text "GND" (rect 8 16 30 26)(font "Arial" (font_size 6)))
	(text "inst4" (rect 3 21 27 33)(font "Intel Clear" )(invisible))
	(port
		(pt 16 0)
		(output)
		(text "1" (rect 18 0 25 11)(font "Courier New" (bold))(invisible))
		(text "1" (rect 18 0 25 11)(font "Courier New" (bold))(invisible))
		(line (pt 16 8)(pt 16 0))
	)
	(drawing
		(line (pt 8 8)(pt 16 16))
		(line (pt 16 16)(pt 24 8))
		(line (pt 8 8)(pt 24 8))
	)
)
(connector
	(text "KEY[0]" (rect 328 82 340 115)(font "Intel Clear" )(vertical))
	(pt 344 80)
	(pt 344 104)
)
(connector
	(pt 344 104)
	(pt 400 104)
)
(connector
	(pt 448 104)
	(pt 456 104)
)
(connector
	(pt 456 104)
	(pt 456 144)
)
(connector
	(pt 456 144)
	(pt 536 144)
)
(connector
	(pt 792 160)
	(pt 736 160)
	(bus)
)
(connector
	(text "LEDR[3]" (rect 864 204 876 244)(font "Intel Clear" )(vertical))
	(pt 880 248)
	(pt 880 144)
)
(connector
	(pt 872 248)
	(pt 880 248)
	(bus)
)
(connector
	(pt 736 128)
	(pt 968 128)
)
(connector
	(text "LEDR[0]" (rect 952 204 964 244)(font "Intel Clear" )(vertical))
	(pt 968 128)
	(pt 968 248)
)
(connector
	(pt 880 248)
	(pt 912 248)
	(bus)
)
(connector
	(pt -88 128)
	(pt 536 128)
)
(connector
	(pt 736 144)
	(pt 880 144)
)
(connector
	(pt 736 192)
	(pt 912 192)
)
(connector
	(pt 536 176)
	(pt 208 176)
)
(connector
	(pt 320 208)
	(pt 360 208)
)
(connector
	(pt 312 80)
	(pt 320 80)
	(bus)
)
(connector
	(pt 320 80)
	(pt 344 80)
	(bus)
)
(connector
	(text "KEY[1]" (rect 304 170 316 203)(font "Intel Clear" )(vertical))
	(pt 320 80)
	(pt 320 208)
)
(connector
	(pt 536 208)
	(pt 408 208)
)
(connector
	(pt 1632 352)
	(pt 1640 352)
	(bus)
)
(connector
	(pt 1592 536)
	(pt 1584 536)
	(bus)
)
(connector
	(pt 1608 520)
	(pt 1584 520)
	(bus)
)
(connector
	(pt 1632 488)
	(pt 1584 488)
	(bus)
)
(connector
	(pt 1616 472)
	(pt 1584 472)
	(bus)
)
(connector
	(pt 1608 656)
	(pt 1608 520)
	(bus)
)
(connector
	(pt 1584 960)
	(pt 1584 552)
	(bus)
)
(connector
	(pt 1632 352)
	(pt 1632 488)
	(bus)
)
(connector
	(pt 1616 200)
	(pt 1616 472)
	(bus)
)
(connector
	(pt 1592 808)
	(pt 1592 536)
	(bus)
)
(connector
	(pt 1616 200)
	(pt 1640 200)
	(bus)
)
(connector
	(pt 1584 504)
	(pt 1640 504)
	(bus)
)
(connector
	(pt 1608 656)
	(pt 1640 656)
	(bus)
)
(connector
	(pt 1592 808)
	(pt 1640 808)
	(bus)
)
(connector
	(pt 1584 960)
	(pt 1640 960)
	(bus)
)
(connector
	(text "dbus[23..0]" (rect 680 456 735 468)(font "Intel Clear" ))
	(pt 1408 472)
	(pt 792 472)
	(bus)
)
(connector
	(pt 792 472)
	(pt 680 472)
	(bus)
)
(connector
	(text "dbus[7..0]" (rect 776 421 788 469)(font "Intel Clear" )(vertical))
	(pt 792 472)
	(pt 792 160)
	(bus)
)
(connector
	(pt 1072 112)
	(pt 1040 112)
)
(connector
	(pt 1040 112)
	(pt 1040 208)
)
(connector
	(pt 1040 208)
	(pt 1080 208)
)
(connector
	(pt 736 208)
	(pt 1040 208)
)
(connector
	(text "LEDR[2]" (rect 896 204 908 244)(font "Intel Clear" )(vertical))
	(pt 912 248)
	(pt 912 192)
)
(connector
	(pt 736 176)
	(pt 944 176)
)
(connector
	(text "LEDR[1]" (rect 928 204 940 244)(font "Intel Clear" )(vertical))
	(pt 944 248)
	(pt 944 176)
)
(connector
	(pt 912 248)
	(pt 944 248)
	(bus)
)
(connector
	(pt 944 248)
	(pt 968 248)
	(bus)
)
(connector
	(pt 968 248)
	(pt 1000 248)
	(bus)
)
(connector
	(pt 1000 248)
	(pt 1080 248)
	(bus)
)
(connector
	(text "LEDR[9..4]" (rect 984 243 996 293)(font "Intel Clear" )(vertical))
	(pt 1000 248)
	(pt 1000 296)
	(bus)
)
(connector
	(pt 1000 296)
	(pt 1048 296)
	(bus)
)
(connector
	(pt 432 192)
	(pt 432 248)
)
(connector
	(pt 432 192)
	(pt 536 192)
)
(connector
	(pt -104 232)
	(pt -72 232)
	(bus)
)
(connector
	(text "bbus[2..0]" (rect -70 144 -22 156)(font "Intel Clear" ))
	(pt -72 160)
	(pt 536 160)
	(bus)
)
(connector
	(text "bbus[1..0]" (rect -88 181 -76 229)(font "Intel Clear" )(vertical))
	(pt -72 232)
	(pt -72 160)
	(bus)
)
(connector
	(pt -208 160)
	(pt -176 160)
	(bus)
)
(connector
	(pt -176 160)
	(pt -72 160)
	(bus)
)
(connector
	(text "bbus[2]" (rect -192 142 -180 179)(font "Intel Clear" )(vertical))
	(pt -176 160)
	(pt -176 184)
)
(connector
	(pt 208 360)
	(pt 504 360)
	(bus)
)
(connector
	(pt 504 360)
	(pt 504 224)
	(bus)
)
(connector
	(pt 504 224)
	(pt 536 224)
	(bus)
)
(junction (pt 880 248))
(junction (pt 912 248))
(junction (pt 968 248))
(junction (pt 320 80))
(junction (pt 792 472))
(junction (pt 1040 208))
(junction (pt 944 248))
(junction (pt 1000 248))
(junction (pt -72 160))
(junction (pt -176 160))
