/*
WARNING: Do NOT edit the input and output ports in this file in a text
editor if you plan to continue editing the block that represents it in
the Block Editor! File corruption is VERY likely to occur.
*/
/*
Copyright (C) 2021  Intel Corporation. All rights reserved.
Your use of Intel Corporation's design tools, logic functions 
and other software and tools, and any partner logic 
functions, and any output files from any of the foregoing 
(including device programming or simulation files), and any 
associated documentation or information are expressly subject 
to the terms and conditions of the Intel Program License 
Subscription Agreement, the Intel Quartus Prime License Agreement,
the Intel FPGA IP License Agreement, or other applicable license
agreement, including, without limitation, that your use is for
the sole purpose of programming logic devices manufactured by
Intel and sold by Intel or its authorized distributors.  Please
refer to the applicable agreement for further details, at
https://fpgasoftware.intel.com/eula.
*/
(header "graphic" (version "1.4"))
(pin
	(input)
	(rect -256 152 -88 168)
	(text "INPUT" (rect 125 0 153 10)(font "Arial" (font_size 6)))
	(text "clk" (rect 5 0 22 12)(font "Arial" ))
	(pt 168 8)
	(drawing
		(line (pt 84 12)(pt 109 12))
		(line (pt 84 4)(pt 109 4))
		(line (pt 113 8)(pt 168 8))
		(line (pt 84 12)(pt 84 4))
		(line (pt 109 4)(pt 113 8))
		(line (pt 109 12)(pt 113 8))
	)
	(text "VCC" (rect 128 7 148 17)(font "Arial" (font_size 6)))
)
(pin
	(input)
	(rect -256 208 -88 224)
	(text "INPUT" (rect 125 0 153 10)(font "Arial" (font_size 6)))
	(text "resetq" (rect 5 0 36 12)(font "Intel Clear" ))
	(pt 168 8)
	(drawing
		(line (pt 84 12)(pt 109 12))
		(line (pt 84 4)(pt 109 4))
		(line (pt 113 8)(pt 168 8))
		(line (pt 84 12)(pt 84 4))
		(line (pt 109 4)(pt 113 8))
		(line (pt 109 12)(pt 113 8))
	)
	(text "VCC" (rect 128 7 148 17)(font "Arial" (font_size 6)))
)
(pin
	(input)
	(rect -256 240 -88 256)
	(text "INPUT" (rect 125 0 153 10)(font "Arial" (font_size 6)))
	(text "io_din[31..0]" (rect 5 0 72 12)(font "Arial" ))
	(pt 168 8)
	(drawing
		(line (pt 84 12)(pt 109 12))
		(line (pt 84 4)(pt 109 4))
		(line (pt 113 8)(pt 168 8))
		(line (pt 84 12)(pt 84 4))
		(line (pt 109 4)(pt 113 8))
		(line (pt 109 12)(pt 113 8))
	)
	(text "VCC" (rect 128 7 148 17)(font "Arial" (font_size 6)))
)
(pin
	(output)
	(rect 640 88 816 104)
	(text "OUTPUT" (rect 1 0 39 10)(font "Arial" (font_size 6)))
	(text "io_wr" (rect 90 0 118 12)(font "Arial" ))
	(pt 0 8)
	(drawing
		(line (pt 0 8)(pt 52 8))
		(line (pt 52 4)(pt 78 4))
		(line (pt 52 12)(pt 78 12))
		(line (pt 52 12)(pt 52 4))
		(line (pt 78 4)(pt 82 8))
		(line (pt 82 8)(pt 78 12))
		(line (pt 78 12)(pt 82 8))
	)
)
(pin
	(output)
	(rect 640 128 816 144)
	(text "OUTPUT" (rect 1 0 39 10)(font "Arial" (font_size 6)))
	(text "io_dout[31..0]" (rect 90 0 158 12)(font "Intel Clear" ))
	(pt 0 8)
	(drawing
		(line (pt 0 8)(pt 52 8))
		(line (pt 52 4)(pt 78 4))
		(line (pt 52 12)(pt 78 12))
		(line (pt 52 12)(pt 52 4))
		(line (pt 78 4)(pt 82 8))
		(line (pt 82 8)(pt 78 12))
		(line (pt 78 12)(pt 82 8))
	)
)
(symbol
	(rect 608 216 848 360)
	(text "SeparateReadWriteRam" (rect 5 0 133 12)(font "Arial" ))
	(text "dstack" (rect 8 128 44 140)(font "Arial" ))
	(port
		(pt 0 32)
		(input)
		(text "clk" (rect 0 0 16 12)(font "Arial" ))
		(text "clk" (rect 21 27 37 39)(font "Arial" ))
		(line (pt 0 32)(pt 16 32))
	)
	(port
		(pt 0 48)
		(input)
		(text "resetq" (rect 0 0 34 12)(font "Arial" ))
		(text "resetq" (rect 21 43 55 55)(font "Arial" ))
		(line (pt 0 48)(pt 16 48))
	)
	(port
		(pt 0 64)
		(input)
		(text "ra[(DEPTH-1)..0]" (rect 0 0 87 12)(font "Arial" ))
		(text "ra[(DEPTH-1)..0]" (rect 21 59 108 71)(font "Arial" ))
		(line (pt 0 64)(pt 16 64)(line_width 3))
	)
	(port
		(pt 0 80)
		(input)
		(text "we" (rect 0 0 15 12)(font "Arial" ))
		(text "we" (rect 21 75 36 87)(font "Arial" ))
		(line (pt 0 80)(pt 16 80))
	)
	(port
		(pt 0 96)
		(input)
		(text "wa[(DEPTH-1)..0]" (rect 0 0 92 12)(font "Arial" ))
		(text "wa[(DEPTH-1)..0]" (rect 21 91 113 103)(font "Arial" ))
		(line (pt 0 96)(pt 16 96)(line_width 3))
	)
	(port
		(pt 0 112)
		(input)
		(text "wd[(WIDTH-1)..0]" (rect 0 0 93 12)(font "Arial" ))
		(text "wd[(WIDTH-1)..0]" (rect 21 107 114 119)(font "Arial" ))
		(line (pt 0 112)(pt 16 112)(line_width 3))
	)
	(port
		(pt 240 32)
		(output)
		(text "rd[(WIDTH-1)..0]" (rect 0 0 88 12)(font "Arial" ))
		(text "rd[(WIDTH-1)..0]" (rect 145 27 219 39)(font "Arial" ))
		(line (pt 240 32)(pt 224 32)(line_width 3))
	)
	(parameter
		"DEPTH"
		"4"
		""
		(type "PARAMETER_SIGNED_DEC")	)
	(parameter
		"WIDTH"
		"32"
		""
		(type "PARAMETER_SIGNED_DEC")	)
	(drawing
		(rectangle (rect 16 16 224 128))
	)
	(annotation_block (parameter)(rect 848 168 1024 216))
)
(symbol
	(rect 408 472 648 616)
	(text "SeparateReadWriteRam" (rect 5 0 133 12)(font "Arial" ))
	(text "rstack" (rect 8 128 42 140)(font "Arial" ))
	(port
		(pt 0 32)
		(input)
		(text "clk" (rect 0 0 16 12)(font "Arial" ))
		(text "clk" (rect 21 27 37 39)(font "Arial" ))
		(line (pt 0 32)(pt 16 32))
	)
	(port
		(pt 0 48)
		(input)
		(text "resetq" (rect 0 0 34 12)(font "Arial" ))
		(text "resetq" (rect 21 43 55 55)(font "Arial" ))
		(line (pt 0 48)(pt 16 48))
	)
	(port
		(pt 0 64)
		(input)
		(text "ra[(DEPTH-1)..0]" (rect 0 0 87 12)(font "Arial" ))
		(text "ra[(DEPTH-1)..0]" (rect 21 59 108 71)(font "Arial" ))
		(line (pt 0 64)(pt 16 64)(line_width 3))
	)
	(port
		(pt 0 80)
		(input)
		(text "we" (rect 0 0 15 12)(font "Arial" ))
		(text "we" (rect 21 75 36 87)(font "Arial" ))
		(line (pt 0 80)(pt 16 80))
	)
	(port
		(pt 0 96)
		(input)
		(text "wa[(DEPTH-1)..0]" (rect 0 0 92 12)(font "Arial" ))
		(text "wa[(DEPTH-1)..0]" (rect 21 91 113 103)(font "Arial" ))
		(line (pt 0 96)(pt 16 96)(line_width 3))
	)
	(port
		(pt 0 112)
		(input)
		(text "wd[(WIDTH-1)..0]" (rect 0 0 93 12)(font "Arial" ))
		(text "wd[(WIDTH-1)..0]" (rect 21 107 114 119)(font "Arial" ))
		(line (pt 0 112)(pt 16 112)(line_width 3))
	)
	(port
		(pt 240 32)
		(output)
		(text "rd[(WIDTH-1)..0]" (rect 0 0 88 12)(font "Arial" ))
		(text "rd[(WIDTH-1)..0]" (rect 145 27 219 39)(font "Arial" ))
		(line (pt 240 32)(pt 224 32)(line_width 3))
	)
	(parameter
		"DEPTH"
		"4"
		""
		(type "PARAMETER_SIGNED_DEC")	)
	(parameter
		"WIDTH"
		"32"
		""
		(type "PARAMETER_SIGNED_DEC")	)
	(drawing
		(rectangle (rect 16 16 224 128))
	)
	(annotation_block (parameter)(rect 648 424 824 472))
)
(symbol
	(rect 64 168 296 440)
	(text "J1Cpu" (rect 5 0 36 12)(font "Arial" ))
	(text "inst" (rect 8 256 28 268)(font "Arial" ))
	(port
		(pt 0 32)
		(input)
		(text "clk" (rect 0 0 16 12)(font "Arial" ))
		(text "clk" (rect 21 27 37 39)(font "Arial" ))
		(line (pt 0 32)(pt 16 32))
	)
	(port
		(pt 0 48)
		(input)
		(text "resetq" (rect 0 0 34 12)(font "Arial" ))
		(text "resetq" (rect 21 43 55 55)(font "Arial" ))
		(line (pt 0 48)(pt 16 48))
	)
	(port
		(pt 0 64)
		(input)
		(text "mem_din[31..0]" (rect 0 0 84 12)(font "Arial" ))
		(text "mem_din[31..0]" (rect 21 59 105 71)(font "Arial" ))
		(line (pt 0 64)(pt 16 64)(line_width 3))
	)
	(port
		(pt 0 80)
		(input)
		(text "io_din[31..0]" (rect 0 0 67 12)(font "Arial" ))
		(text "io_din[31..0]" (rect 21 75 88 87)(font "Arial" ))
		(line (pt 0 80)(pt 16 80)(line_width 3))
	)
	(port
		(pt 0 96)
		(input)
		(text "insn[15..0]" (rect 0 0 57 12)(font "Arial" ))
		(text "insn[15..0]" (rect 21 91 78 103)(font "Arial" ))
		(line (pt 0 96)(pt 16 96)(line_width 3))
	)
	(port
		(pt 0 112)
		(input)
		(text "st1[31..0]" (rect 0 0 51 12)(font "Arial" ))
		(text "st1[31..0]" (rect 21 107 72 119)(font "Arial" ))
		(line (pt 0 112)(pt 16 112)(line_width 3))
	)
	(port
		(pt 0 128)
		(input)
		(text "rst0[31..0]" (rect 0 0 56 12)(font "Arial" ))
		(text "rst0[31..0]" (rect 21 123 77 135)(font "Arial" ))
		(line (pt 0 128)(pt 16 128)(line_width 3))
	)
	(port
		(pt 232 32)
		(output)
		(text "io_wr" (rect 0 0 28 12)(font "Arial" ))
		(text "io_wr" (rect 188 27 211 39)(font "Arial" ))
		(line (pt 232 32)(pt 216 32))
	)
	(port
		(pt 232 48)
		(output)
		(text "mem_wr" (rect 0 0 46 12)(font "Arial" ))
		(text "mem_wr" (rect 173 43 211 55)(font "Arial" ))
		(line (pt 232 48)(pt 216 48))
	)
	(port
		(pt 232 64)
		(output)
		(text "mem_addr[15..0]" (rect 0 0 93 12)(font "Arial" ))
		(text "mem_addr[15..0]" (rect 133 59 211 71)(font "Arial" ))
		(line (pt 232 64)(pt 216 64)(line_width 3))
	)
	(port
		(pt 232 80)
		(output)
		(text "dout[31..0]" (rect 0 0 60 12)(font "Arial" ))
		(text "dout[31..0]" (rect 161 75 211 87)(font "Arial" ))
		(line (pt 232 80)(pt 216 80)(line_width 3))
	)
	(port
		(pt 232 96)
		(output)
		(text "code_addr[12..0]" (rect 0 0 90 12)(font "Arial" ))
		(text "code_addr[12..0]" (rect 135 91 211 103)(font "Arial" ))
		(line (pt 232 96)(pt 216 96)(line_width 3))
	)
	(port
		(pt 232 112)
		(output)
		(text "dsp[3..0]" (rect 0 0 48 12)(font "Arial" ))
		(text "dsp[3..0]" (rect 171 107 211 119)(font "Arial" ))
		(line (pt 232 112)(pt 216 112)(line_width 3))
	)
	(port
		(pt 232 128)
		(output)
		(text "dstkW" (rect 0 0 33 12)(font "Arial" ))
		(text "dstkW" (rect 184 123 211 135)(font "Arial" ))
		(line (pt 232 128)(pt 216 128))
	)
	(port
		(pt 232 144)
		(output)
		(text "dspN[3..0]" (rect 0 0 55 12)(font "Arial" ))
		(text "dspN[3..0]" (rect 165 139 211 151)(font "Arial" ))
		(line (pt 232 144)(pt 216 144)(line_width 3))
	)
	(port
		(pt 232 160)
		(output)
		(text "st0[31..0]" (rect 0 0 51 12)(font "Arial" ))
		(text "st0[31..0]" (rect 168 155 211 167)(font "Arial" ))
		(line (pt 232 160)(pt 216 160)(line_width 3))
	)
	(port
		(pt 232 176)
		(output)
		(text "rsp[3..0]" (rect 0 0 46 12)(font "Arial" ))
		(text "rsp[3..0]" (rect 173 171 211 183)(font "Arial" ))
		(line (pt 232 176)(pt 216 176)(line_width 3))
	)
	(port
		(pt 232 192)
		(output)
		(text "rstkW" (rect 0 0 30 12)(font "Arial" ))
		(text "rstkW" (rect 186 187 211 199)(font "Arial" ))
		(line (pt 232 192)(pt 216 192))
	)
	(port
		(pt 232 208)
		(output)
		(text "rspN[3..0]" (rect 0 0 53 12)(font "Arial" ))
		(text "rspN[3..0]" (rect 167 203 211 215)(font "Arial" ))
		(line (pt 232 208)(pt 216 208)(line_width 3))
	)
	(port
		(pt 232 224)
		(output)
		(text "rstkD[31..0]" (rect 0 0 63 12)(font "Arial" ))
		(text "rstkD[31..0]" (rect 158 219 211 231)(font "Arial" ))
		(line (pt 232 224)(pt 216 224)(line_width 3))
	)
	(drawing
		(rectangle (rect 16 16 216 256))
	)
)
(symbol
	(rect 224 -24 416 120)
	(text "J1Ram" (rect 153 0 187 12)(font "Arial" ))
	(text "J1Ram1" (rect 143 128 184 140)(font "Arial" ))
	(port
		(pt 192 32)
		(input)
		(text "clk" (rect 0 0 16 12)(font "Arial" ))
		(text "clk" (rect 155 27 171 39)(font "Arial" ))
		(line (pt 192 32)(pt 176 32))
	)
	(port
		(pt 192 48)
		(input)
		(text "a_addr[15..0]" (rect 0 0 71 12)(font "Arial" ))
		(text "a_addr[15..0]" (rect 100 43 171 55)(font "Arial" ))
		(line (pt 192 48)(pt 176 48)(line_width 3))
	)
	(port
		(pt 192 64)
		(input)
		(text "a_d[31..0]" (rect 0 0 54 12)(font "Arial" ))
		(text "a_d[31..0]" (rect 117 59 171 71)(font "Arial" ))
		(line (pt 192 64)(pt 176 64)(line_width 3))
	)
	(port
		(pt 192 80)
		(input)
		(text "a_wr" (rect 0 0 25 12)(font "Arial" ))
		(text "a_wr" (rect 146 75 171 87)(font "Arial" ))
		(line (pt 192 80)(pt 176 80))
	)
	(port
		(pt 192 96)
		(input)
		(text "b_addr[12..0]" (rect 0 0 71 12)(font "Arial" ))
		(text "b_addr[12..0]" (rect 100 91 171 103)(font "Arial" ))
		(line (pt 192 96)(pt 176 96)(line_width 3))
	)
	(port
		(pt 0 32)
		(output)
		(text "a_q[31..0]" (rect 0 0 54 12)(font "Arial" ))
		(text "a_q[31..0]" (rect 21 27 66 39)(font "Arial" ))
		(line (pt 0 32)(pt 16 32)(line_width 3))
	)
	(port
		(pt 0 48)
		(output)
		(text "b_q[15..0]" (rect 0 0 54 12)(font "Arial" ))
		(text "b_q[15..0]" (rect 21 43 66 55)(font "Arial" ))
		(line (pt 0 48)(pt 16 48)(line_width 3))
	)
	(drawing
		(rectangle (rect 16 16 176 128))
	)
	(flipy)
)
(connector
	(pt -8 280)
	(pt 64 280)
	(bus)
)
(connector
	(pt 296 344)
	(pt 376 344)
	(bus)
)
(connector
	(pt 376 344)
	(pt 376 536)
	(bus)
)
(connector
	(pt 376 536)
	(pt 408 536)
	(bus)
)
(connector
	(pt 648 504)
	(pt 704 504)
	(bus)
)
(connector
	(pt 704 504)
	(pt 704 648)
	(bus)
)
(connector
	(pt 704 648)
	(pt -8 648)
	(bus)
)
(connector
	(pt -8 648)
	(pt -8 296)
	(bus)
)
(connector
	(pt -8 296)
	(pt 64 296)
	(bus)
)
(connector
	(pt 296 360)
	(pt 360 360)
)
(connector
	(pt 360 360)
	(pt 360 552)
)
(connector
	(pt 360 552)
	(pt 408 552)
)
(connector
	(pt 296 376)
	(pt 344 376)
	(bus)
)
(connector
	(pt 344 376)
	(pt 344 568)
	(bus)
)
(connector
	(pt 344 568)
	(pt 408 568)
	(bus)
)
(connector
	(pt 296 392)
	(pt 328 392)
	(bus)
)
(connector
	(pt 328 392)
	(pt 328 584)
	(bus)
)
(connector
	(pt 328 584)
	(pt 408 584)
	(bus)
)
(connector
	(pt 888 248)
	(pt 848 248)
	(bus)
)
(connector
	(pt 296 280)
	(pt 608 280)
	(bus)
)
(connector
	(pt 296 296)
	(pt 608 296)
)
(connector
	(pt 296 312)
	(pt 608 312)
	(bus)
)
(connector
	(pt 296 328)
	(pt 608 328)
	(bus)
)
(connector
	(pt 472 232)
	(pt 296 232)
	(bus)
)
(connector
	(pt 296 216)
	(pt 440 216)
)
(connector
	(pt 24 232)
	(pt 64 232)
	(bus)
)
(connector
	(pt 8 264)
	(pt 64 264)
	(bus)
)
(connector
	(pt 296 264)
	(pt 424 264)
	(bus)
)
(connector
	(pt -8 -40)
	(pt 888 -40)
	(bus)
)
(connector
	(pt -8 280)
	(pt -8 -40)
	(bus)
)
(connector
	(pt 888 248)
	(pt 888 -40)
	(bus)
)
(connector
	(pt 472 24)
	(pt 416 24)
	(bus)
)
(connector
	(pt 472 232)
	(pt 472 24)
	(bus)
)
(connector
	(pt 440 216)
	(pt 440 56)
)
(connector
	(pt 440 56)
	(pt 416 56)
)
(connector
	(pt 456 248)
	(pt 456 40)
	(bus)
)
(connector
	(pt 456 40)
	(pt 416 40)
	(bus)
)
(connector
	(pt 24 8)
	(pt 224 8)
	(bus)
)
(connector
	(pt 24 232)
	(pt 24 8)
	(bus)
)
(connector
	(pt 8 24)
	(pt 224 24)
	(bus)
)
(connector
	(pt 8 264)
	(pt 8 24)
	(bus)
)
(connector
	(pt 424 264)
	(pt 424 72)
	(bus)
)
(connector
	(pt 424 72)
	(pt 416 72)
	(bus)
)
(connector
	(pt 56 160)
	(pt 56 200)
)
(connector
	(pt 56 200)
	(pt 64 200)
)
(connector
	(pt 592 160)
	(pt 592 248)
)
(connector
	(pt -88 160)
	(pt 56 160)
)
(connector
	(pt 592 248)
	(pt 608 248)
)
(connector
	(pt 496 160)
	(pt 496 8)
)
(connector
	(pt 496 8)
	(pt 416 8)
)
(connector
	(pt 56 160)
	(pt 496 160)
)
(connector
	(pt 512 160)
	(pt 512 448)
)
(connector
	(pt 496 160)
	(pt 512 160)
)
(connector
	(pt 512 160)
	(pt 592 160)
)
(connector
	(pt 400 448)
	(pt 400 504)
)
(connector
	(pt 512 448)
	(pt 400 448)
)
(connector
	(pt 408 504)
	(pt 400 504)
)
(connector
	(pt -88 248)
	(pt 64 248)
	(bus)
)
(connector
	(pt 296 248)
	(pt 456 248)
	(bus)
)
(connector
	(pt 456 248)
	(pt 568 248)
	(bus)
)
(connector
	(pt 568 136)
	(pt 568 248)
	(bus)
)
(connector
	(pt 568 136)
	(pt 640 136)
	(bus)
)
(connector
	(pt 296 200)
	(pt 544 200)
)
(connector
	(pt 544 200)
	(pt 544 96)
)
(connector
	(pt 544 96)
	(pt 640 96)
)
(connector
	(pt -64 216)
	(pt -64 520)
)
(connector
	(pt -88 216)
	(pt -64 216)
)
(connector
	(pt -64 216)
	(pt 64 216)
)
(connector
	(pt 392 520)
	(pt 392 344)
)
(connector
	(pt 392 344)
	(pt 568 344)
)
(connector
	(pt -64 520)
	(pt 392 520)
)
(connector
	(pt 392 520)
	(pt 408 520)
)
(connector
	(pt 568 344)
	(pt 568 264)
)
(connector
	(pt 568 264)
	(pt 608 264)
)
(junction (pt 56 160))
(junction (pt 496 160))
(junction (pt 512 160))
(junction (pt 456 248))
(junction (pt -64 216))
(junction (pt 392 520))
